…
# Were able to find each journal and the number of times each one has been cited in each data frame
total_AB_journal_citations=summarise(group_by(AB,journal,citations))
```

    ## Warning: Factor `journal` contains implicit NA, consider using
    ## `forcats::fct_explicit_na`

``` r
total_AB_journal_citations
```

    ## # A tibble: 391 x 2
    ## # Groups:   journal [368]
    ##    journal                                                        citations
    ##    <fct>                                                              <int>
    ##  1 1st TCD/LSE/CEPR Workshop in Development Economics, Dublin, 2…        11
    ##  2 A Research on China’s Economic Growth Potential 46 (1), 1-3, …        NA
    ##  3 A. Robinson. Reversal of fortune: Geography and institutions …        34
    ##  4 ABCDE, 145, 2005                                                      NA
    ##  5 Accessed February 15, 2017, 2014                                      29
    ##  6 Achieving the Millennium Development Goals 33, 230, 2008              NA
    ##  7 Advances in Economics and Econometrics: Theory and Applicatio…       284
    ##  8 AEA Papers and Proceedings 109, 133-37, 2019                           3
    ##  9 AEA Papers and Proceedings 109, 334-39, 2019                          95
    ## 10 African Successes, Volume I: Government and Institutions 1, 4…        NA
    ## # … with 381 more rows

``` r
#Ester Duflo
total_ED_journal_citations=summarise(group_by(ED,journal,citations))
```

    ## Warning: Factor `journal` contains implicit NA, consider using
    ## `forcats::fct_explicit_na`

``` r
total_ED_journal_citations
```

    ## # A tibble: 369 x 2
    ## # Groups:   journal [348]
    ##    journal                                                        citations
    ##    <fct>                                                              <int>
    ##  1 [Rabat Morocco] John Snow [JSI] 2001 Jun 28., 2001                    NA
    ##  2 [Unpublished] 2002. Prepared for the IAEN Economics of HIV/AI…        NA
    ##  3 [Unpublished] 2006 Aug., 2006                                         NA
    ##  4 21st BREAD Conference, 12-13, 2012                                     9
    ##  5 A Radical Rethinking of the Way to Fight Global Poverty. New …         2
    ##  6 A Research on China’s Economic Growth Potential 46 (1), 1-3, …        NA
    ##  7 Accessed February 15, 2017, 2014                                      31
    ##  8 AEA Papers and Proceedings 108, 636-51, 2018                           2
    ##  9 AEA Papers and Proceedings 108, 745, 2018                              2
    ## 10 AEA Papers and Proceedings 109, 612-26, 2019                          NA
    ## # … with 359 more rows
…
